FIFO/quartus ii/FIFO/simulation/qsim/FIFO.msim.vcd
$comment
	File created using the following command:
		vcd file FIFO.msim.vcd -direction
$end
$date
	Thu Jun 18 16:31:00 2020
$end
$version
	ModelSim Version 10.1d
$end
$timescale
	1ps
$end
$scope module FIFO_vlg_vec_tst $end
$var reg 8 ! FIFO_IN [7:0] $end
$var reg 1 " RD_EN $end
$var reg 1 # RST_B $end
$var reg 1 $ SYSCLK $end
$var reg 1 % WR_EN $end
$var wire 1 & EMPTY $end
$var wire 1 ' FIFO_OUT [7] $end
$var wire 1 ( FIFO_OUT [6] $end
$var wire 1 ) FIFO_OUT [5] $end
$var wire 1 * FIFO_OUT [4] $end
$var wire 1 + FIFO_OUT [3] $end
$var wire 1 , FIFO_OUT [2] $end
$var wire 1 - FIFO_OUT [1] $end
$var wire 1 . FIFO_OUT [0] $end
$var wire 1 / FULL $end
$var wire 1 0 sampler $end
$scope module i1 $end
$var wire 1 1 gnd $end
$var wire 1 2 vcc $end
$var wire 1 3 unknown $end
$var tri1 1 4 devclrn $end
$var tri1 1 5 devpor $end
$var tri1 1 6 devoe $end
$var wire 1 7 EMPTY~output_o $end
$var wire 1 8 FULL~output_o $end
$var wire 1 9 FIFO_OUT[0]~output_o $end
$var wire 1 : FIFO_OUT[1]~output_o $end
$var wire 1 ; FIFO_OUT[2]~output_o $end
$var wire 1 < FIFO_OUT[3]~output_o $end
$var wire 1 = FIFO_OUT[4]~output_o $end
$var wire 1 > FIFO_OUT[5]~output_o $end
$var wire 1 ? FIFO_OUT[6]~output_o $end
$var wire 1 @ FIFO_OUT[7]~output_o $end
$var wire 1 A SYSCLK~input_o $end
$var wire 1 B Mod1|auto_generated|divider|divider|op_1~4_combout $end
$var wire 1 C Mod1|auto_generated|divider|divider|StageOut[10]~4_combout $end
$var wire 1 D Mod1|auto_generated|divider|divider|StageOut[10]~12_combout $end
$var wire 1 E Mod1|auto_generated|divider|divider|StageOut[9]~13_combout $end
$var wire 1 F Mod1|auto_generated|divider|divider|op_1~0_combout $end
$var wire 1 G Mod1|auto_generated|divider|divider|StageOut[8]~7_combout $end
$var wire 1 H Mod1|auto_generated|divider|divider|StageOut[8]~6_combout $end
$var wire 1 I Mod1|auto_generated|divider|divider|op_2~1_cout $end
$var wire 1 J Mod1|auto_generated|divider|divider|op_2~3 $end
$var wire 1 K Mod1|auto_generated|divider|divider|op_2~5 $end
$var wire 1 L Mod1|auto_generated|divider|divider|op_2~7_cout $end
$var wire 1 M Mod1|auto_generated|divider|divider|op_2~8_combout $end
$var wire 1 N w_addr_ns[0]~3_combout $end
$var wire 1 O RST_B~input_o $end
$var wire 1 P RST_B~inputclkctrl_outclk $end
$var wire 1 Q Mod1|auto_generated|divider|divider|op_1~1 $end
$var wire 1 R Mod1|auto_generated|divider|divider|op_1~3 $end
$var wire 1 S Mod1|auto_generated|divider|divider|op_1~5 $end
$var wire 1 T Mod1|auto_generated|divider|divider|op_1~6_combout $end
$var wire 1 U Mod1|auto_generated|divider|divider|op_1~2_combout $end
$var wire 1 V Mod1|auto_generated|divider|divider|StageOut[9]~5_combout $end
$var wire 1 W Mod1|auto_generated|divider|divider|op_2~4_combout $end
$var wire 1 X always2~0clkctrl_outclk $end
$var wire 1 Y RD_EN~input_o $end
$var wire 1 Z Mod0|auto_generated|divider|divider|op_1~1 $end
$var wire 1 [ Mod0|auto_generated|divider|divider|op_1~3 $end
$var wire 1 \ Mod0|auto_generated|divider|divider|op_1~4_combout $end
$var wire 1 ] Mod0|auto_generated|divider|divider|StageOut[10]~7_combout $end
$var wire 1 ^ Mod0|auto_generated|divider|divider|StageOut[10]~9_combout $end
$var wire 1 _ Mod0|auto_generated|divider|divider|op_1~2_combout $end
$var wire 1 ` Mod0|auto_generated|divider|divider|StageOut[9]~4_combout $end
$var wire 1 a Mod0|auto_generated|divider|divider|op_1~0_combout $end
$var wire 1 b Mod0|auto_generated|divider|divider|StageOut[8]~6_combout $end
$var wire 1 c Mod0|auto_generated|divider|divider|op_2~1_cout $end
$var wire 1 d Mod0|auto_generated|divider|divider|op_2~3 $end
$var wire 1 e Mod0|auto_generated|divider|divider|op_2~5 $end
$var wire 1 f Mod0|auto_generated|divider|divider|op_2~7_cout $end
$var wire 1 g Mod0|auto_generated|divider|divider|op_2~8_combout $end
$var wire 1 h r_addr_ns~4_combout $end
$var wire 1 i Add0~0_combout $end
$var wire 1 j Mod0|auto_generated|divider|divider|op_1~5 $end
$var wire 1 k Mod0|auto_generated|divider|divider|op_1~6_combout $end
$var wire 1 l Mod0|auto_generated|divider|divider|StageOut[8]~5_combout $end
$var wire 1 m Mod0|auto_generated|divider|divider|op_2~2_combout $end
$var wire 1 n r_addr_ns~2_combout $end
$var wire 1 o r_addr_ns~3_combout $end
$var wire 1 p Mod0|auto_generated|divider|divider|StageOut[9]~8_combout $end
$var wire 1 q Mod0|auto_generated|divider|divider|op_2~4_combout $end
$var wire 1 r r_addr_ns~0_combout $end
$var wire 1 s r_addr_ns~1_combout $end
$var wire 1 t Equal1~0_combout $end
$var wire 1 u WR_EN~input_o $end
$var wire 1 v Mod1|auto_generated|divider|divider|op_2~2_combout $end
$var wire 1 w Mod1|auto_generated|divider|divider|StageOut[13]~9_combout $end
$var wire 1 x Equal1~2_combout $end
$var wire 1 y Equal1~1_combout $end
$var wire 1 z always2~0_combout $end
$var wire 1 { w_addr_ns[0]~1_combout $end
$var wire 1 | w_addr_ns[0]~1clkctrl_outclk $end
$var wire 1 } Mod1|auto_generated|divider|divider|StageOut[13]~10_combout $end
$var wire 1 ~ w_addr_ns[1]~0_combout $end
$var wire 1 !! Add1~0_combout $end
$var wire 1 "! Mod1|auto_generated|divider|divider|StageOut[14]~8_combout $end
$var wire 1 #! Mod1|auto_generated|divider|divider|StageOut[14]~11_combout $end
$var wire 1 $! w_addr_ns[2]~2_combout $end
$var wire 1 %! Equal0~0_combout $end
$var wire 1 &! Equal0~1_combout $end
$var wire 1 '! Equal1~3_combout $end
$var wire 1 (! SYSCLK~inputclkctrl_outclk $end
$var wire 1 )! FIFO_OUT_NS~2_combout $end
$var wire 1 *! FIFO_IN[0]~input_o $end
$var wire 1 +! rtl~0_combout $end
$var wire 1 ,! rtl~0clkctrl_outclk $end
$var wire 1 -! mem~16_combout $end
$var wire 1 .! rtl~3_combout $end
$var wire 1 /! rtl~3clkctrl_outclk $end
$var wire 1 0! mem~24_combout $end
$var wire 1 1! rtl~1_combout $end
$var wire 1 2! rtl~1clkctrl_outclk $end
$var wire 1 3! mem~8_combout $end
$var wire 1 4! rtl~2_combout $end
$var wire 1 5! rtl~2clkctrl_outclk $end
$var wire 1 6! mem~0_combout $end
$var wire 1 7! mem~40_combout $end
$var wire 1 8! mem~41_combout $end
$var wire 1 9! rtl~4_combout $end
$var wire 1 :! rtl~4clkctrl_outclk $end
$var wire 1 ;! mem~32_combout $end
$var wire 1 <! FIFO_OUT_NS~3_combout $end
$var wire 1 =! FIFO_OUT_NS~4_combout $end
$var wire 1 >! FIFO_OUT[0]~reg0_q $end
$var wire 1 ?! FIFO_IN[1]~input_o $end
$var wire 1 @! mem~33_combout $end
$var wire 1 A! mem~9_combout $end
$var wire 1 B! mem~1_combout $end
$var wire 1 C! mem~25_combout $end
$var wire 1 D! mem~17_combout $end
$var wire 1 E! FIFO_OUT_NS~5_combout $end
$var wire 1 F! FIFO_OUT_NS~6_combout $end
$var wire 1 G! FIFO_OUT_NS~7_combout $end
$var wire 1 H! FIFO_OUT_NS~8_combout $end
$var wire 1 I! FIFO_OUT[1]~reg0_q $end
$var wire 1 J! FIFO_IN[2]~input_o $end
$var wire 1 K! mem~34_combout $end
$var wire 1 L! mem~26_combout $end
$var wire 1 M! mem~18_combout $end
$var wire 1 N! mem~10_combout $end
$var wire 1 O! mem~2_combout $end
$var wire 1 P! FIFO_OUT_NS~9_combout $end
$var wire 1 Q! FIFO_OUT_NS~10_combout $end
$var wire 1 R! FIFO_OUT_NS~11_combout $end
$var wire 1 S! FIFO_OUT_NS~12_combout $end
$var wire 1 T! FIFO_OUT[2]~reg0_q $end
$var wire 1 U! FIFO_IN[3]~input_o $end
$var wire 1 V! mem~19_combout $end
$var wire 1 W! FIFO_OUT_NS~13_combout $end
$var wire 1 X! mem~35_combout $end
$var wire 1 Y! FIFO_OUT_NS~26_combout $end
$var wire 1 Z! mem~27_combout $end
$var wire 1 [! mem~11_combout $end
$var wire 1 \! mem~3_combout $end
$var wire 1 ]! FIFO_OUT_NS~14_combout $end
$var wire 1 ^! FIFO_OUT_NS~15_combout $end
$var wire 1 _! FIFO_OUT_NS~16_combout $end
$var wire 1 `! FIFO_OUT_NS~17_combout $end
$var wire 1 a! FIFO_OUT[3]~reg0_q $end
$var wire 1 b! FIFO_IN[4]~input_o $end
$var wire 1 c! mem~36_combout $end
$var wire 1 d! mem~12_combout $end
$var wire 1 e! mem~28_combout $end
$var wire 1 f! mem~20_combout $end
$var wire 1 g! mem~4_combout $end
$var wire 1 h! mem~42_combout $end
$var wire 1 i! mem~43_combout $end
$var wire 1 j! FIFO_OUT_NS~18_combout $end
$var wire 1 k! FIFO_OUT_NS~19_combout $end
$var wire 1 l! FIFO_OUT[4]~reg0_q $end
$var wire 1 m! FIFO_IN[5]~input_o $end
$var wire 1 n! mem~37_combout $end
$var wire 1 o! mem~21_combout $end
$var wire 1 p! mem~29_combout $end
$var wire 1 q! mem~5_combout $end
$var wire 1 r! mem~13_combout $end
$var wire 1 s! mem~44_combout $end
$var wire 1 t! mem~45_combout $end
$var wire 1 u! FIFO_OUT_NS~20_combout $end
$var wire 1 v! FIFO_OUT_NS~21_combout $end
$var wire 1 w! FIFO_OUT[5]~reg0_q $end
$var wire 1 x! FIFO_IN[6]~input_o $end
$var wire 1 y! mem~38_combout $end
$var wire 1 z! mem~14_combout $end
$var wire 1 {! mem~30_combout $end
$var wire 1 |! mem~22_combout $end
$var wire 1 }! mem~6_combout $end
$var wire 1 ~! mem~46_combout $end
$var wire 1 !" mem~47_combout $end
$var wire 1 "" FIFO_OUT_NS~22_combout $end
$var wire 1 #" FIFO_OUT_NS~23_combout $end
$var wire 1 $" FIFO_OUT[6]~reg0_q $end
$var wire 1 %" FIFO_IN[7]~input_o $end
$var wire 1 &" mem~39_combout $end
$var wire 1 '" mem~23_combout $end
$var wire 1 (" mem~31_combout $end
$var wire 1 )" mem~15_combout $end
$var wire 1 *" mem~7_combout $end
$var wire 1 +" mem~48_combout $end
$var wire 1 ," mem~49_combout $end
$var wire 1 -" FIFO_OUT_NS~24_combout $end
$var wire 1 ." FIFO_OUT_NS~25_combout $end
$var wire 1 /" FIFO_OUT[7]~reg0_q $end
$var wire 1 0" r_addr_ns [2] $end
$var wire 1 1" r_addr_ns [1] $end
$var wire 1 2" r_addr_ns [0] $end
$var wire 1 3" r_addr [2] $end
$var wire 1 4" r_addr [1] $end
$var wire 1 5" r_addr [0] $end
$var wire 1 6" w_addr [2] $end
$var wire 1 7" w_addr [1] $end
$var wire 1 8" w_addr [0] $end
$var wire 1 9" w_addr_ns [2] $end
$var wire 1 :" w_addr_ns [1] $end
$var wire 1 ;" w_addr_ns [0] $end
$var wire 1 <" FIFO_OUT_NS [7] $end
$var wire 1 =" FIFO_OUT_NS [6] $end
$var wire 1 >" FIFO_OUT_NS [5] $end
$var wire 1 ?" FIFO_OUT_NS [4] $end
$var wire 1 @" FIFO_OUT_NS [3] $end
$var wire 1 A" FIFO_OUT_NS [2] $end
$var wire 1 B" FIFO_OUT_NS [1] $end
$var wire 1 C" FIFO_OUT_NS [0] $end
$upscope $end
$upscope $end
$enddefinitions $end
#0
$dumpvars
b0 !
0"
1#
1$
0%
1&
0.
0-
0,
0+
0*
0)
0(
0'
0/
x0
01
12
x3
14
15
16
17
08
09
0:
0;
0<
0=
0>
0?
0@
1A
0B
0C
0D
0E
1F
0G
0H
1I
0J
0K
1L
1M
0N
1O
1P
0Q
1R
0S
1T
1U
0V
1W
0X
0Y
0Z
1[
0\
0]
0^
1_
0`
1a
0b
1c
0d
0e
1f
1g
0h
0i
0j
1k
0l
0m
0n
0o
0p
1q
0r
0s
0t
0u
0v
0w
0x
1y
0z
1{
1|
0}
0~
0!!
0"!
0#!
0$!
1%!
1&!
0'!
1(!
0)!
0*!
0+!
0,!
x-!
0.!
0/!
x0!
01!
02!
x3!
04!
05!
x6!
x7!
x8!
09!
0:!
x;!
x<!
0=!
0>!
0?!
x@!
xA!
xB!
xC!
xD!
0E!
xF!
xG!
0H!
0I!
0J!
xK!
xL!
xM!
xN!
xO!
xP!
xQ!
xR!
0S!
0T!
0U!
xV!
0W!
xX!
0Y!
xZ!
x[!
x\!
x]!
x^!
x_!
0`!
0a!
0b!
xc!
xd!
xe!
xf!
xg!
xh!
xi!
xj!
0k!
0l!
0m!
xn!
xo!
xp!
xq!
xr!
xs!
xt!
xu!
0v!
0w!
0x!
xy!
xz!
x{!
x|!
x}!
x~!
x!"
x""
0#"
0$"
0%"
x&"
x'"
x("
x)"
x*"
x+"
x,"
x-"
0."
0/"
02"
01"
00"
05"
04"
03"
08"
07"
06"
0;"
0:"
09"
0C"
0B"
0A"
0@"
0?"
0>"
0="
0<"
$end
#5000
0$
0A
0(!
00
#10000
0#
1$
0O
1A
0P
1(!
10
#15000
0$
0A
0(!
00
#20000
1#
1$
1O
1A
1P
1(!
10
#25000
0$
0A
0(!
00
#30000
1$
1A
1(!
10
#35000
0$
0A
0(!
00
#40000
1%
b1 !
1$
1u
1*!
1A
1(!
10
1z
1X
14!
1N
15!
1;"
0*"
0}!
0q!
0g!
0\!
0O!
0B!
16!
0+"
0~!
0s!
0h!
0]!
0P!
0F!
17!
0,"
0!"
0t!
0i!
0^!
0Q!
0G!
18!
0-"
0""
0u!
0j!
0_!
0R!
1<!
#45000
0$
0A
0(!
00
#50000
0%
1$
0u
1A
1(!
10
0z
0X
04!
0N
05!
0;"
18"
0y
1w
1N
0I
1H
1Q
0F
0&!
1}
1x
1;"
0R
0U
07
0&
1'!
1B
18
1/
0'!
08
0/
#55000
0$
0A
0(!
00
#60000
b11 !
b10 !
1%
1$
0*!
1?!
1u
1A
1(!
10
1z
1X
11!
1~
0N
12!
1:"
0;"
0)"
0z!
0r!
0d!
0[!
0N!
1A!
03!
#65000
0$
0A
0(!
00
#70000
0%
1$
0u
1A
1(!
10
0z
0X
01!
0~
1N
02!
0:"
1;"
17"
08"
0%!
1~
1y
0N
1I
1&!
1:"
0;"
1v
17
1&
0&!
07
0&
#75000
0$
0A
0(!
00
#80000
b11 !
1%
1$
1*!
1u
1A
1(!
10
1z
1X
1+!
1N
1,!
1;"
0'"
0|!
0o!
0f!
0V!
0M!
1D!
1-!
#85000
0$
0A
0(!
00
#90000
0%
1$
0u
1A
1(!
10
0z
0X
0+!
0N
0,!
0;"
18"
1!!
0y
0w
1N
0I
0H
0Q
1F
1E
1"!
0}
0x
1;"
1J
1K
0W
1#!
1t
0K
1W
0L
1'!
1L
0M
18
1/
0'!
1M
1}
1y
1x
08
0/
0}
0y
0x
#95000
0$
0A
0(!
00
#100000
b111 !
b101 !
b100 !
1%
1$
0*!
0?!
1J!
1u
1A
1(!
10
1z
1X
1.!
1$!
0~
0N
1/!
19"
0:"
0;"
0("
0{!
0p!
0e!
0Z!
1L!
0C!
00!
#105000
0$
0A
0(!
00
#110000
0%
1$
0u
1A
1(!
10
0z
0X
0.!
0$!
1~
1N
0/!
09"
1:"
1;"
16"
07"
08"
1$!
0"!
1R
1U
1S
0B
0!!
0~
1y
0N
1I
19"
0#!
0t
0S
1"!
0T
0R
0U
0:"
0;"
0J
0v
1T
1#!
1t
0"!
1w
1G
0E
1B
1K
0W
1"!
0w
0G
1E
0#!
0t
1}
1x
1v
0K
1W
0L
1#!
1t
0}
0x
0v
1K
0W
1L
0M
0L
0#!
0t
1M
0y
0M
1#!
1y
1t
1'!
0#!
0y
0t
18
1/
0'!
08
0/
1'!
18
1/
#115000
0$
0A
0(!
00
#120000
1"
b0 !
1$
1Y
0J!
1A
1(!
10
1=!
0{
1h
0|
1C"
12"
#125000
0$
0A
0(!
00
#130000
0"
1$
0Y
1A
1(!
10
0=!
1{
0h
1|
0C"
02"
15"
1>!
1E!
07!
1y
1l
1h
0c
1Z
0a
1=!
19
1.
1F!
08!
1n
12"
0[
0_
1C"
0'!
1G!
0<!
1\
08
0/
#135000
0$
0A
0(!
00
#140000
1"
1$
1Y
1A
1(!
10
1H!
0=!
0{
1o
0h
0|
1B"
0C"
11"
02"
#145000
0$
0A
0(!
00
#150000
0"
1$
0Y
1A
1(!
10
0H!
1=!
1{
0o
1h
1|
0B"
1C"
01"
12"
14"
05"
1I!
0>!
18!
1x
1o
0y
0h
1c
1H!
0=!
1:
09
1-
0.
1<!
11"
02"
1m
1B"
0C"
#155000
0$
0A
0(!
00
#160000
1"
1$
1Y
1A
1(!
10
1=!
0{
1h
0|
1C"
12"
#165000
0$
0A
0(!
00
#170000
0"
1$
0Y
1A
1(!
10
0=!
1{
0h
1|
0C"
02"
15"
1>!
1+"
1~!
1s!
1h!
1]!
1P!
0E!
17!
1y
1p
0l
1i
1h
0c
0Z
1a
1=!
19
1.
1Q!
0F!
08!
1r
1e
0q
0n
1d
12"
1C"
1R!
0G!
0<!
0f
0e
1q
0g
1f
1n
1g
0n
#175000
0$
0A
0(!
00
#180000
1"
1$
1Y
1A
1(!
10
1S!
0H!
0=!
0{
1s
0o
0h
0|
1A"
0B"
0C"
10"
01"
02"
#185000
0$
0A
0(!
00
#190000
0"
1$
0Y
1A
1(!
10
0S!
1H!
1=!
1{
0s
1o
1h
1|
0A"
1B"
1C"
00"
11"
12"
13"
04"
05"
1T!
0I!
0>!
xY!
0R!
1)!
1%!
1t
1s
1j
0\
1[
1_
1,"
0+"
0~!
1t!
0s!
0h!
1^!
0]!
0P!
18!
0x
0o
0i
1!"
1i!
0y
0h
1c
1S!
0H!
0=!
1;
0:
09
1,
0-
0.
x_!
x-"
x""
xu!
xj!
xR!
xG!
x<!
10"
0k
0j
0,"
0!"
0t!
0i!
0^!
0Q!
01"
0[
0_
02"
0d
0m
1A"
0B"
0C"
1&!
0p
1b
1k
1\
1e
0q
17
1&
0r
0e
1q
1n
1m
1p
0b
0f
1f
1r
0n
1e
0q
0m
0g
1g
0f
0r
1r
0g
0r
#195000
0$
0A
0(!
00
#200000
1$
1A
1(!
10
#205000
0$
0A
0(!
00
#210000
b10 !
b11 !
1%
b111 !
1$
1*!
1?!
1J!
1u
1A
1(!
10
1z
1X
19!
0$!
1:!
09"
0&"
0y!
0n!
0c!
0X!
1K!
1@!
1;!
0-"
0""
0u!
0j!
0Y!
1R!
1G!
1<!
0_!
#215000
0$
0A
0(!
00
#220000
0%
1$
0u
1A
1(!
10
0z
0X
09!
1$!
0:!
19"
06"
0%!
0$!
0"!
1R
1U
0E
09"
0B
0K
1W
0&!
1L
1#!
0t
07
0&
1M
1'!
0#!
1y
1t
18
1/
0'!
08
0/
#225000
0$
0A
0(!
00
#230000
b101 !
b100 !
b0 !
1$
0*!
0?!
0J!
1A
1(!
10
#235000
0$
0A
0(!
00
#240000
1$
1A
1(!
10
#245000
0$
0A
0(!
00
#250000
1$
1A
1(!
10
#255000
0$
0A
0(!
00
#260000
1$
1A
1(!
10
#265000
0$
0A
0(!
00
#270000
1$
1A
1(!
10
#275000
0$
0A
0(!
00
#280000
1$
1A
1(!
10
#285000
0$
0A
0(!
00
#290000
1$
1A
1(!
10
#295000
0$
0A
0(!
00
#300000
1$
1A
1(!
10
#305000
0$
0A
0(!
00
#310000
1$
1A
1(!
10
#315000
0$
0A
0(!
00
#320000
1$
1A
1(!
10
#325000
0$
0A
0(!
00
#330000
1$
1A
1(!
10
#335000
0$
0A
0(!
00
#340000
1"
1$
1Y
1A
1(!
10
1H!
1=!
0{
0s
0|
1B"
1C"
00"
#345000
0$
0A
0(!
00
#350000
0"
1$
0Y
1A
1(!
10
0H!
0=!
1{
1s
1|
0B"
0C"
10"
03"
1I!
1>!
0)!
1%!
0t
0s
0p
1[
1_
1H!
1=!
1:
19
1-
1.
0R!
0G!
00"
0e
1q
0\
1B"
1C"
1&!
1f
1r
17
1&
1g
0r
#355000
0$
0A
0(!
00
#360000
1$
1A
1(!
10
#365000
0$
0A
0(!
00
#370000
1$
1A
1(!
10
#375000
0$
0A
0(!
00
#380000
1$
1A
1(!
10
#385000
0$
0A
0(!
00
#390000
1$
1A
1(!
10
#395000
0$
0A
0(!
00
#400000
1$
1A
1(!
10
#405000
0$
0A
0(!
00
#410000
1$
1A
1(!
10
#415000
0$
0A
0(!
00
#420000
1$
1A
1(!
10
#425000
0$
0A
0(!
00
#430000
1$
1A
1(!
10
#435000
0$
0A
0(!
00
#440000
1$
1A
1(!
10
#445000
0$
0A
0(!
00
#450000
1$
1A
1(!
10
#455000
0$
0A
0(!
00
#460000
1$
1A
1(!
10
#465000
0$
0A
0(!
00
#470000
1$
1A
1(!
10
#475000
0$
0A
0(!
00
#480000
1$
1A
1(!
10
#485000
0$
0A
0(!
00
#490000
1$
1A
1(!
10
#495000
0$
0A
0(!
00
#500000
1$
1A
1(!
10
#505000
0$
0A
0(!
00
#510000
1$
1A
1(!
10
#515000
0$
0A
0(!
00
#520000
1$
1A
1(!
10
#525000
0$
0A
0(!
00
#530000
1$
1A
1(!
10
#535000
0$
0A
0(!
00
#540000
1$
1A
1(!
10
#545000
0$
0A
0(!
00
#550000
1$
1A
1(!
10
#555000
0$
0A
0(!
00
#560000
1$
1A
1(!
10
#565000
0$
0A
0(!
00
#570000
1$
1A
1(!
10
#575000
0$
0A
0(!
00
#580000
1$
1A
1(!
10
#585000
0$
0A
0(!
00
#590000
1$
1A
1(!
10
#595000
0$
0A
0(!
00
#600000
1$
1A
1(!
10
#605000
0$
0A
0(!
00
#610000
1$
1A
1(!
10
#615000
0$
0A
0(!
00
#620000
1$
1A
1(!
10
#625000
0$
0A
0(!
00
#630000
1$
1A
1(!
10
#635000
0$
0A
0(!
00
#640000
1$
1A
1(!
10
#645000
0$
0A
0(!
00
#650000
1$
1A
1(!
10
#655000
0$
0A
0(!
00
#660000
1$
1A
1(!
10
#665000
0$
0A
0(!
00
#670000
1$
1A
1(!
10
#675000
0$
0A
0(!
00
#680000
1$
1A
1(!
10
#685000
0$
0A
0(!
00
#690000
1$
1A
1(!
10
#695000
0$
0A
0(!
00
#700000
1$
1A
1(!
10
#705000
0$
0A
0(!
00
#710000
1$
1A
1(!
10
#715000
0$
0A
0(!
00
#720000
1$
1A
1(!
10
#725000
0$
0A
0(!
00
#730000
1$
1A
1(!
10
#735000
0$
0A
0(!
00
#740000
1$
1A
1(!
10
#745000
0$
0A
0(!
00
#750000
1$
1A
1(!
10
#755000
0$
0A
0(!
00
#760000
1$
1A
1(!
10
#765000
0$
0A
0(!
00
#770000
1$
1A
1(!
10
#775000
0$
0A
0(!
00
#780000
1$
1A
1(!
10
#785000
0$
0A
0(!
00
#790000
1$
1A
1(!
10
#795000
0$
0A
0(!
00
#800000
1$
1A
1(!
10
#805000
0$
0A
0(!
00
#810000
1$
1A
1(!
10
#815000
0$
0A
0(!
00
#820000
1$
1A
1(!
10
#825000
0$
0A
0(!
00
#830000
1$
1A
1(!
10
#835000
0$
0A
0(!
00
#840000
1$
1A
1(!
10
#845000
0$
0A
0(!
00
#850000
1$
1A
1(!
10
#855000
0$
0A
0(!
00
#860000
1$
1A
1(!
10
#865000
0$
0A
0(!
00
#870000
1$
1A
1(!
10
#875000
0$
0A
0(!
00
#880000
1$
1A
1(!
10
#885000
0$
0A
0(!
00
#890000
1$
1A
1(!
10
#895000
0$
0A
0(!
00
#900000
1$
1A
1(!
10
#905000
0$
0A
0(!
00
#910000
1$
1A
1(!
10
#915000
0$
0A
0(!
00
#920000
1$
1A
1(!
10
#925000
0$
0A
0(!
00
#930000
1$
1A
1(!
10
#935000
0$
0A
0(!
00
#940000
1$
1A
1(!
10
#945000
0$
0A
0(!
00
#950000
1$
1A
1(!
10
#955000
0$
0A
0(!
00
#960000
1$
1A
1(!
10
#965000
0$
0A
0(!
00
#970000
1$
1A
1(!
10
#975000
0$
0A
0(!
00
#980000
1$
1A
1(!
10
#985000
0$
0A
0(!
00
#990000
1$
1A
1(!
10
#995000
0$
0A
0(!
00
