TIMER/quartus ii/TIMER/simulation/qsim/TIMER.msim.vcd
$comment
	File created using the following command:
		vcd file TIMER.msim.vcd -direction
$end
$date
	Tue Jun 16 22:02:01 2020
$end
$version
	ModelSim Version 10.1d
$end
$timescale
	1ps
$end
$scope module TIMER_vlg_vec_tst $end
$var reg 1 ! RST_B $end
$var reg 1 " START $end
$var reg 1 # SYSCLK $end
$var reg 3 $ TIME_MIN [2:0] $end
$var reg 6 % TIME_SEC [5:0] $end
$var wire 1 & MINUTE [2] $end
$var wire 1 ' MINUTE [1] $end
$var wire 1 ( MINUTE [0] $end
$var wire 1 ) SECOND [5] $end
$var wire 1 * SECOND [4] $end
$var wire 1 + SECOND [3] $end
$var wire 1 , SECOND [2] $end
$var wire 1 - SECOND [1] $end
$var wire 1 . SECOND [0] $end
$var wire 1 / TIME_UP $end
$var wire 1 0 sampler $end
$scope module i1 $end
$var wire 1 1 gnd $end
$var wire 1 2 vcc $end
$var wire 1 3 unknown $end
$var tri1 1 4 devclrn $end
$var tri1 1 5 devpor $end
$var tri1 1 6 devoe $end
$var wire 1 7 MINUTE[0]~output_o $end
$var wire 1 8 MINUTE[1]~output_o $end
$var wire 1 9 MINUTE[2]~output_o $end
$var wire 1 : SECOND[0]~output_o $end
$var wire 1 ; SECOND[1]~output_o $end
$var wire 1 < SECOND[2]~output_o $end
$var wire 1 = SECOND[3]~output_o $end
$var wire 1 > SECOND[4]~output_o $end
$var wire 1 ? SECOND[5]~output_o $end
$var wire 1 @ TIME_UP~output_o $end
$var wire 1 A SYSCLK~input_o $end
$var wire 1 B SYSCLK~inputclkctrl_outclk $end
$var wire 1 C START~input_o $end
$var wire 1 D TIME_SEC[2]~input_o $end
$var wire 1 E TIME_SEC[1]~input_o $end
$var wire 1 F TIME_SEC[4]~input_o $end
$var wire 1 G TIME_SEC[3]~input_o $end
$var wire 1 H always1~1_combout $end
$var wire 1 I TIME_MIN[0]~input_o $end
$var wire 1 J TIME_MIN[2]~input_o $end
$var wire 1 K TIME_MIN[1]~input_o $end
$var wire 1 L TIME_SEC[0]~input_o $end
$var wire 1 M always1~0_combout $end
$var wire 1 N TIME_SEC[5]~input_o $end
$var wire 1 O always1~2_combout $end
$var wire 1 P TIME_UP~1_combout $end
$var wire 1 Q SECOND[0]~0_combout $end
$var wire 1 R RST_B~input_o $end
$var wire 1 S RST_B~inputclkctrl_outclk $end
$var wire 1 T SECOND[0]~reg0_q $end
$var wire 1 U Add0~0_combout $end
$var wire 1 V SECOND[1]~reg0_q $end
$var wire 1 W SECOND_N~0_combout $end
$var wire 1 X SECOND[2]~reg0_q $end
$var wire 1 Y Add0~2_combout $end
$var wire 1 Z SECOND_N~2_combout $end
$var wire 1 [ SECOND[4]~reg0_q $end
$var wire 1 \ SECOND_N~3_combout $end
$var wire 1 ] SECOND[5]~reg0_q $end
$var wire 1 ^ Equal4~0_combout $end
$var wire 1 _ Add0~1_combout $end
$var wire 1 ` SECOND_N~1_combout $end
$var wire 1 a SECOND[3]~reg0_q $end
$var wire 1 b Equal4~1_combout $end
$var wire 1 c MINUTE[1]~1_combout $end
$var wire 1 d MINUTE[1]~reg0_q $end
$var wire 1 e MINUTE[0]~2_combout $end
$var wire 1 f MINUTE[2]~3_combout $end
$var wire 1 g MINUTE[2]~reg0_q $end
$var wire 1 h Equal2~0_combout $end
$var wire 1 i always1~3_combout $end
$var wire 1 j Equal3~0_combout $end
$var wire 1 k always1~4_combout $end
$var wire 1 l always1~6_combout $end
$var wire 1 m always1~5_combout $end
$var wire 1 n always1~7_combout $end
$var wire 1 o always1~8_combout $end
$var wire 1 p Selector1~0_combout $end
$var wire 1 q state.count~q $end
$var wire 1 r state_n.done~0_combout $end
$var wire 1 s state.done~q $end
$var wire 1 t Selector0~0_combout $end
$var wire 1 u state.00~q $end
$var wire 1 v always3~0_combout $end
$var wire 1 w MINUTE[0]~0_combout $end
$var wire 1 x MINUTE[0]~reg0_q $end
$var wire 1 y TIME_UP~0_combout $end
$upscope $end
$upscope $end
$enddefinitions $end
#0
$dumpvars
0!
0"
1#
b11 $
b110000 %
0(
0'
0&
0.
0-
0,
0+
0*
0)
0/
x0
01
12
x3
14
15
16
07
08
09
0:
0;
0<
0=
0>
0?
0@
1A
1B
0C
0D
0E
1F
0G
0H
1I
0J
1K
0L
0M
1N
0O
0P
1Q
0R
0S
0T
0U
0V
0W
0X
0Y
0Z
0[
0\
0]
0^
0_
0`
0a
0b
0c
0d
0e
0f
0g
0h
0i
0j
0k
0l
0m
0n
0o
0p
0q
0r
0s
0t
0u
0v
0w
0x
0y
$end
#5000
0#
0A
0B
00
#10000
1!
1#
1R
1A
1S
1B
10
#15000
0#
0A
0B
00
#20000
1"
1#
1C
1A
1B
10
1v
1t
1P
1p
#25000
0#
0A
0B
00
#30000
0"
1#
0C
1A
1B
10
0v
0t
0P
0p
1u
1q
1T
1v
1t
1p
1U
0Q
1:
1.
#35000
0#
0A
0B
00
#40000
1#
1A
1B
10
1V
0T
1Q
1;
0:
1-
0.
#45000
0#
0A
0B
00
#50000
1#
1A
1B
10
1T
1m
1j
1W
0U
0Q
1:
1.
#55000
0#
0A
0B
00
#60000
1#
1A
1B
10
1X
0V
0T
0m
1Q
1<
0;
0:
1,
0-
0.
#65000
0#
0A
0B
00
#70000
1#
1A
1B
10
1T
1U
0Q
1:
1.
#75000
0#
0A
0B
00
#80000
1#
1A
1B
10
1V
0T
1Q
1;
0:
1-
0.
#85000
0#
0A
0B
00
#90000
1#
1A
1B
10
1T
1m
0j
1_
0W
0U
0Q
1:
1.
1`
#95000
0#
0A
0B
00
#100000
1#
1A
1B
10
1a
0X
0V
0T
0m
1Q
1=
0<
0;
0:
1+
0,
0-
0.
#105000
0#
0A
0B
00
#110000
1#
1A
1B
10
1T
1U
0Q
1:
1.
#115000
0#
0A
0B
00
#120000
1#
1A
1B
10
1V
0T
1Q
1;
0:
1-
0.
#125000
0#
0A
0B
00
#130000
1#
1A
1B
10
1T
1m
1j
1W
0U
0Q
1:
1.
#135000
0#
0A
0B
00
#140000
1#
1A
1B
10
1X
0V
0T
0m
1Q
1<
0;
0:
1,
0-
0.
#145000
0#
0A
0B
00
#150000
1#
1A
1B
10
1T
1U
0Q
1:
1.
#155000
0#
0A
0B
00
#160000
1#
1A
1B
10
1V
0T
1Q
1;
0:
1-
0.
#165000
0#
0A
0B
00
#170000
1#
1A
1B
10
1T
1m
0j
0_
1Y
0W
0U
0Q
1:
1.
1k
0`
1Z
#175000
0#
0A
0B
00
#180000
1#
1A
1B
10
0a
1[
0X
0V
0T
0Y
0k
1i
1\
0Z
0m
1Q
0=
1>
0<
0;
0:
0+
1*
0,
0-
0.
1k
0i
0\
1Z
#185000
0#
0A
0B
00
#190000
1#
1A
1B
10
1T
1U
0Q
1:
1.
#195000
0#
0A
0B
00
#200000
1#
1A
1B
10
1V
0T
1Q
1;
0:
1-
0.
#205000
0#
0A
0B
00
#210000
1#
1A
1B
10
1T
1m
1j
1W
0U
0Q
1:
1.
0k
#215000
0#
0A
0B
00
#220000
1#
1A
1B
10
1X
0V
0T
0m
1Q
1<
0;
0:
1,
0-
0.
#225000
0#
0A
0B
00
#230000
1#
1A
1B
10
1T
1U
0Q
1:
1.
#235000
0#
0A
0B
00
#240000
1#
1A
1B
10
1V
0T
1Q
1;
0:
1-
0.
#245000
0#
0A
0B
00
#250000
1#
1A
1B
10
1T
1m
0j
1_
0W
0U
0Q
1:
1.
1k
1`
#255000
0#
0A
0B
00
#260000
1#
1A
1B
10
1a
0X
0V
0T
0m
1Q
1=
0<
0;
0:
1+
0,
0-
0.
#265000
0#
0A
0B
00
#270000
1#
1A
1B
10
1T
1U
0Q
1:
1.
#275000
0#
0A
0B
00
#280000
1#
1A
1B
10
1V
0T
1Q
1;
0:
1-
0.
#285000
0#
0A
0B
00
#290000
1#
1A
1B
10
1T
1m
1j
1W
0U
0Q
1:
1.
0k
#295000
0#
0A
0B
00
#300000
1#
1A
1B
10
1X
0V
0T
0m
1Q
1<
0;
0:
1,
0-
0.
#305000
0#
0A
0B
00
#310000
1#
1A
1B
10
1T
1U
0Q
1:
1.
#315000
0#
0A
0B
00
#320000
1#
1A
1B
10
1V
0T
1Q
1;
0:
1-
0.
#325000
0#
0A
0B
00
#330000
1#
1A
1B
10
1T
1m
0j
0_
1Y
0W
0U
0Q
1:
1.
0`
1i
1\
0Z
#335000
0#
0A
0B
00
#340000
1#
1A
1B
10
0a
1]
0[
0X
0V
0T
0Y
1k
1Z
0m
1Q
0=
1?
0>
0<
0;
0:
0+
1)
0*
0,
0-
0.
0k
0Z
#345000
0#
0A
0B
00
#350000
1#
1A
1B
10
1T
1U
0Q
1:
1.
#355000
0#
0A
0B
00
#360000
1#
1A
1B
10
1V
0T
1Q
1;
0:
1-
0.
#365000
0#
0A
0B
00
#370000
1#
1A
1B
10
1T
1m
1j
1W
0U
0Q
1:
1.
#375000
0#
0A
0B
00
#380000
1#
1A
1B
10
1X
0V
0T
0m
1Q
1<
0;
0:
1,
0-
0.
#385000
0#
0A
0B
00
#390000
1#
1A
1B
10
1T
1U
0Q
1:
1.
#395000
0#
0A
0B
00
#400000
1#
1A
1B
10
1V
0T
1Q
1;
0:
1-
0.
#405000
0#
0A
0B
00
#410000
1#
1A
1B
10
1T
1m
0j
1_
0W
0U
0Q
1:
1.
1`
#415000
0#
0A
0B
00
#420000
1#
1A
1B
10
1a
0X
0V
0T
0m
1Q
1=
0<
0;
0:
1+
0,
0-
0.
#425000
0#
0A
0B
00
#430000
1#
1A
1B
10
1T
1U
0Q
1:
1.
#435000
0#
0A
0B
00
#440000
1#
1A
1B
10
1V
0T
1Q
1;
0:
1-
0.
#445000
0#
0A
0B
00
#450000
1#
1A
1B
10
1T
1m
1j
1W
0U
0Q
1:
1.
#455000
0#
0A
0B
00
#460000
1#
1A
1B
10
1X
0V
0T
0m
1Q
1<
0;
0:
1,
0-
0.
#465000
0#
0A
0B
00
#470000
1#
1A
1B
10
1T
1U
0Q
1:
1.
#475000
0#
0A
0B
00
#480000
1#
1A
1B
10
1V
0T
1Q
1;
0:
1-
0.
#485000
0#
0A
0B
00
#490000
1#
1A
1B
10
1T
1m
0j
0_
1Y
0W
0U
0Q
1:
1.
1k
0`
1Z
#495000
0#
0A
0B
00
#500000
1#
1A
1B
10
0a
1[
0X
0V
0T
0Y
0k
0i
0\
0Z
0m
1Q
0=
1>
0<
0;
0:
0+
1*
0,
0-
0.
1k
1i
1\
1Z
#505000
0#
0A
0B
00
#510000
1#
1A
1B
10
1T
1U
0Q
1:
1.
#515000
0#
0A
0B
00
#520000
1#
1A
1B
10
1V
0T
1Q
1;
0:
1-
0.
#525000
0#
0A
0B
00
#530000
1#
1A
1B
10
1T
1m
1j
1^
1W
0U
0Q
1:
1.
0k
#535000
0#
0A
0B
00
#540000
1#
1A
1B
10
1X
0V
0T
0m
0^
1Q
1<
0;
0:
1,
0-
0.
#545000
0#
0A
0B
00
#550000
1#
1A
1B
10
1T
1U
0Q
1:
1.
#555000
0#
0A
0B
00
#560000
1#
1A
1B
10
1V
0T
1Q
1;
0:
1-
0.
#565000
0#
0A
0B
00
#570000
1#
1A
1B
10
1T
1m
0j
1_
1^
0W
0U
0Q
1:
1.
1k
1`
#575000
0#
0A
0B
00
#580000
1#
1A
1B
10
1a
0X
0V
0T
1b
0`
0m
0^
1Q
1=
0<
0;
0:
1+
0,
0-
0.
1w
1e
0\
0Z
0b
1`
0w
0e
1\
1Z
#585000
0#
0A
0B
00
#590000
1#
1A
1B
10
1T
1U
0Q
1:
1.
#595000
0#
0A
0B
00
#600000
1#
1A
1B
10
1V
0T
1Q
1;
0:
1-
0.
#605000
0#
0A
0B
00
#610000
1#
1A
1B
10
1T
1m
1j
1^
1W
0U
0Q
1:
1.
0k
1b
0`
1w
1e
0\
0Z
0W
#615000
0#
0A
0B
00
#620000
1#
1A
1B
10
1x
0a
0]
0[
0V
0T
0w
1c
0b
1`
0_
0i
0^
0m
0j
1Q
17
0=
0?
0>
0;
0:
1(
0+
0)
0*
0-
0.
1w
0e
0c
0`
#625000
0#
0A
0B
00
#630000
1#
1A
1B
10
1T
1U
0Q
1:
1.
#635000
0#
0A
0B
00
#640000
1#
1A
1B
10
1V
0T
1Q
1;
0:
1-
0.
#645000
0#
0A
0B
00
#650000
1#
1A
1B
10
1T
1m
1j
1W
0U
0Q
1:
1.
#655000
0#
0A
0B
00
#660000
1#
1A
1B
10
1X
0V
0T
0m
1Q
1<
0;
0:
1,
0-
0.
#665000
0#
0A
0B
00
#670000
1#
1A
1B
10
1T
1U
0Q
1:
1.
#675000
0#
0A
0B
00
#680000
1#
1A
1B
10
1V
0T
1Q
1;
0:
1-
0.
#685000
0#
0A
0B
00
#690000
1#
1A
1B
10
1T
1m
0j
1_
0W
0U
0Q
1:
1.
1`
#695000
0#
0A
0B
00
#700000
1#
1A
1B
10
1a
0X
0V
0T
0m
1Q
1=
0<
0;
0:
1+
0,
0-
0.
#705000
0#
0A
0B
00
#710000
1#
1A
1B
10
1T
1U
0Q
1:
1.
#715000
0#
0A
0B
00
#720000
1#
1A
1B
10
1V
0T
1Q
1;
0:
1-
0.
#725000
0#
0A
0B
00
#730000
1#
1A
1B
10
1T
1m
1j
1W
0U
0Q
1:
1.
#735000
0#
0A
0B
00
#740000
1#
1A
1B
10
1X
0V
0T
0m
1Q
1<
0;
0:
1,
0-
0.
#745000
0#
0A
0B
00
#750000
1#
1A
1B
10
1T
1U
0Q
1:
1.
#755000
0#
0A
0B
00
#760000
1#
1A
1B
10
1V
0T
1Q
1;
0:
1-
0.
#765000
0#
0A
0B
00
#770000
1#
1A
1B
10
1T
1m
0j
0_
1Y
0W
0U
0Q
1:
1.
1k
0`
1Z
#775000
0#
0A
0B
00
#780000
1#
1A
1B
10
0a
1[
0X
0V
0T
0Y
0k
1i
1\
0Z
0m
1Q
0=
1>
0<
0;
0:
0+
1*
0,
0-
0.
1k
0i
0\
1Z
#785000
0#
0A
0B
00
#790000
1#
1A
1B
10
1T
1U
0Q
1:
1.
#795000
0#
0A
0B
00
#800000
1#
1A
1B
10
1V
0T
1Q
1;
0:
1-
0.
#805000
0#
0A
0B
00
#810000
1#
1A
1B
10
1T
1m
1j
1W
0U
0Q
1:
1.
0k
#815000
0#
0A
0B
00
#820000
1#
1A
1B
10
1X
0V
0T
0m
1Q
1<
0;
0:
1,
0-
0.
#825000
0#
0A
0B
00
#830000
1#
1A
1B
10
1T
1U
0Q
1:
1.
#835000
0#
0A
0B
00
#840000
1#
1A
1B
10
1V
0T
1Q
1;
0:
1-
0.
#845000
0#
0A
0B
00
#850000
1#
1A
1B
10
1T
1m
0j
1_
0W
0U
0Q
1:
1.
1k
1`
#855000
0#
0A
0B
00
#860000
1#
1A
1B
10
1a
0X
0V
0T
0m
1Q
1=
0<
0;
0:
1+
0,
0-
0.
#865000
0#
0A
0B
00
#870000
1#
1A
1B
10
1T
1U
0Q
1:
1.
#875000
0#
0A
0B
00
#880000
1#
1A
1B
10
1V
0T
1Q
1;
0:
1-
0.
#885000
0#
0A
0B
00
#890000
1#
1A
1B
10
1T
1m
1j
1W
0U
0Q
1:
1.
0k
#895000
0#
0A
0B
00
#900000
1#
1A
1B
10
1X
0V
0T
0m
1Q
1<
0;
0:
1,
0-
0.
#905000
0#
0A
0B
00
#910000
1#
1A
1B
10
1T
1U
0Q
1:
1.
#915000
0#
0A
0B
00
#920000
1#
1A
1B
10
1V
0T
1Q
1;
0:
1-
0.
#925000
0#
0A
0B
00
#930000
1#
1A
1B
10
1T
1m
0j
0_
1Y
0W
0U
0Q
1:
1.
0`
1i
1\
0Z
#935000
0#
0A
0B
00
#940000
1#
1A
1B
10
0a
1]
0[
0X
0V
0T
0Y
1k
1Z
0m
1Q
0=
1?
0>
0<
0;
0:
0+
1)
0*
0,
0-
0.
0k
0Z
#945000
0#
0A
0B
00
#950000
1#
1A
1B
10
1T
1U
0Q
1:
1.
#955000
0#
0A
0B
00
#960000
1#
1A
1B
10
1V
0T
1Q
1;
0:
1-
0.
#965000
0#
0A
0B
00
#970000
1#
1A
1B
10
1T
1m
1j
1W
0U
0Q
1:
1.
#975000
0#
0A
0B
00
#980000
1#
1A
1B
10
1X
0V
0T
0m
1Q
1<
0;
0:
1,
0-
0.
#985000
0#
0A
0B
00
#990000
1#
1A
1B
10
1T
1U
0Q
1:
1.
#995000
0#
0A
0B
00
#1000000
1#
1A
1B
10
1V
0T
1Q
1;
0:
1-
0.
#1005000
0#
0A
0B
00
#1010000
1#
1A
1B
10
1T
1m
0j
1_
0W
0U
0Q
1:
1.
1`
#1015000
0#
0A
0B
00
#1020000
1#
1A
1B
10
1a
0X
0V
0T
0m
1Q
1=
0<
0;
0:
1+
0,
0-
0.
#1025000
0#
0A
0B
00
#1030000
1#
1A
1B
10
1T
1U
0Q
1:
1.
#1035000
0#
0A
0B
00
#1040000
1#
1A
1B
10
1V
0T
1Q
1;
0:
1-
0.
#1045000
0#
0A
0B
00
#1050000
1#
1A
1B
10
1T
1m
1j
1W
0U
0Q
1:
1.
#1055000
0#
0A
0B
00
#1060000
1#
1A
1B
10
1X
0V
0T
0m
1Q
1<
0;
0:
1,
0-
0.
#1065000
0#
0A
0B
00
#1070000
1#
1A
1B
10
1T
1U
0Q
1:
1.
#1075000
0#
0A
0B
00
#1080000
1#
1A
1B
10
1V
0T
1Q
1;
0:
1-
0.
#1085000
0#
0A
0B
00
#1090000
1#
1A
1B
10
1T
1m
0j
0_
1Y
0W
0U
0Q
1:
1.
1k
0`
1Z
#1095000
0#
0A
0B
00
#1100000
1#
1A
1B
10
0a
1[
0X
0V
0T
0Y
0k
0i
0\
0Z
0m
1Q
0=
1>
0<
0;
0:
0+
1*
0,
0-
0.
1k
1i
1\
1Z
#1105000
0#
0A
0B
00
#1110000
1#
1A
1B
10
1T
1U
0Q
1:
1.
#1115000
0#
0A
0B
00
#1120000
1#
1A
1B
10
1V
0T
1Q
1;
0:
1-
0.
#1125000
0#
0A
0B
00
#1130000
1#
1A
1B
10
1T
1m
1j
1^
1W
0U
0Q
1:
1.
0k
#1135000
0#
0A
0B
00
#1140000
1#
1A
1B
10
1X
0V
0T
0m
0^
1Q
1<
0;
0:
1,
0-
0.
#1145000
0#
0A
0B
00
#1150000
1#
1A
1B
10
1T
1U
0Q
1:
1.
#1155000
0#
0A
0B
00
#1160000
1#
1A
1B
10
1V
0T
1Q
1;
0:
1-
0.
#1165000
0#
0A
0B
00
#1170000
1#
1A
1B
10
1T
1m
0j
1_
1^
0W
0U
0Q
1:
1.
1k
1`
#1175000
0#
0A
0B
00
#1180000
1#
1A
1B
10
1a
0X
0V
0T
1b
0`
0m
0^
1Q
1=
0<
0;
0:
1+
0,
0-
0.
0w
1e
1c
0\
0Z
0b
1`
1w
0e
0c
1\
1Z
#1185000
0#
0A
0B
00
#1190000
1#
1A
1B
10
1T
1U
0Q
1:
1.
#1195000
0#
0A
0B
00
#1200000
1#
1A
1B
10
1V
0T
1Q
1;
0:
1-
0.
#1205000
0#
0A
0B
00
#1210000
1#
1A
1B
10
1T
1m
1j
1^
1W
0U
0Q
1:
1.
0k
1b
0`
0w
1e
1c
0\
0Z
0W
#1215000
0#
0A
0B
00
#1220000
1#
1A
1B
10
0x
1d
0a
0]
0[
0V
0T
1w
0b
1`
0_
0i
0^
0m
0j
1Q
07
18
0=
0?
0>
0;
0:
0(
1'
0+
0)
0*
0-
0.
0w
0e
0`
#1225000
0#
0A
0B
00
#1230000
1#
1A
1B
10
1T
1U
0Q
1:
1.
#1235000
0#
0A
0B
00
#1240000
1#
1A
1B
10
1V
0T
1Q
1;
0:
1-
0.
#1245000
0#
0A
0B
00
#1250000
1#
1A
1B
10
1T
1m
1j
1W
0U
0Q
1:
1.
#1255000
0#
0A
0B
00
#1260000
1#
1A
1B
10
1X
0V
0T
0m
1Q
1<
0;
0:
1,
0-
0.
#1265000
0#
0A
0B
00
#1270000
1#
1A
1B
10
1T
1U
0Q
1:
1.
#1275000
0#
0A
0B
00
#1280000
1#
1A
1B
10
1V
0T
1Q
1;
0:
1-
0.
#1285000
0#
0A
0B
00
#1290000
1#
1A
1B
10
1T
1m
0j
1_
0W
0U
0Q
1:
1.
1`
#1295000
0#
0A
0B
00
#1300000
1#
1A
1B
10
1a
0X
0V
0T
0m
1Q
1=
0<
0;
0:
1+
0,
0-
0.
#1305000
0#
0A
0B
00
#1310000
1#
1A
1B
10
1T
1U
0Q
1:
1.
#1315000
0#
0A
0B
00
#1320000
1#
1A
1B
10
1V
0T
1Q
1;
0:
1-
0.
#1325000
0#
0A
0B
00
#1330000
1#
1A
1B
10
1T
1m
1j
1W
0U
0Q
1:
1.
#1335000
0#
0A
0B
00
#1340000
1#
1A
1B
10
1X
0V
0T
0m
1Q
1<
0;
0:
1,
0-
0.
#1345000
0#
0A
0B
00
#1350000
1#
1A
1B
10
1T
1U
0Q
1:
1.
#1355000
0#
0A
0B
00
#1360000
1#
1A
1B
10
1V
0T
1Q
1;
0:
1-
0.
#1365000
0#
0A
0B
00
#1370000
1#
1A
1B
10
1T
1m
0j
0_
1Y
0W
0U
0Q
1:
1.
1k
0`
1Z
#1375000
0#
0A
0B
00
#1380000
1#
1A
1B
10
0a
1[
0X
0V
0T
0Y
0k
1i
1\
0Z
0m
1Q
0=
1>
0<
0;
0:
0+
1*
0,
0-
0.
1k
0i
0\
1Z
#1385000
0#
0A
0B
00
#1390000
1#
1A
1B
10
1T
1U
0Q
1:
1.
#1395000
0#
0A
0B
00
#1400000
1#
1A
1B
10
1V
0T
1Q
1;
0:
1-
0.
#1405000
0#
0A
0B
00
#1410000
1#
1A
1B
10
1T
1m
1j
1W
0U
0Q
1:
1.
0k
#1415000
0#
0A
0B
00
#1420000
1#
1A
1B
10
1X
0V
0T
0m
1Q
1<
0;
0:
1,
0-
0.
#1425000
0#
0A
0B
00
#1430000
1#
1A
1B
10
1T
1U
0Q
1:
1.
#1435000
0#
0A
0B
00
#1440000
1#
1A
1B
10
1V
0T
1Q
1;
0:
1-
0.
#1445000
0#
0A
0B
00
#1450000
1#
1A
1B
10
1T
1m
0j
1_
0W
0U
0Q
1:
1.
1k
1`
#1455000
0#
0A
0B
00
#1460000
1#
1A
1B
10
1a
0X
0V
0T
0m
1Q
1=
0<
0;
0:
1+
0,
0-
0.
#1465000
0#
0A
0B
00
#1470000
1#
1A
1B
10
1T
1U
0Q
1:
1.
#1475000
0#
0A
0B
00
#1480000
1#
1A
1B
10
1V
0T
1Q
1;
0:
1-
0.
#1485000
0#
0A
0B
00
#1490000
1#
1A
1B
10
1T
1m
1j
1W
0U
0Q
1:
1.
0k
#1495000
0#
0A
0B
00
#1500000
1#
1A
1B
10
1X
0V
0T
0m
1Q
1<
0;
0:
1,
0-
0.
#1505000
0#
0A
0B
00
#1510000
1#
1A
1B
10
1T
1U
0Q
1:
1.
#1515000
0#
0A
0B
00
#1520000
1#
1A
1B
10
1V
0T
1Q
1;
0:
1-
0.
#1525000
0#
0A
0B
00
#1530000
1#
1A
1B
10
1T
1m
0j
0_
1Y
0W
0U
0Q
1:
1.
0`
1i
1\
0Z
#1535000
0#
0A
0B
00
#1540000
1#
1A
1B
10
0a
1]
0[
0X
0V
0T
0Y
1k
1Z
0m
1Q
0=
1?
0>
0<
0;
0:
0+
1)
0*
0,
0-
0.
0k
0Z
#1545000
0#
0A
0B
00
#1550000
1#
1A
1B
10
1T
1U
0Q
1:
1.
#1555000
0#
0A
0B
00
#1560000
1#
1A
1B
10
1V
0T
1Q
1;
0:
1-
0.
#1565000
0#
0A
0B
00
#1570000
1#
1A
1B
10
1T
1m
1j
1W
0U
0Q
1:
1.
#1575000
0#
0A
0B
00
#1580000
1#
1A
1B
10
1X
0V
0T
0m
1Q
1<
0;
0:
1,
0-
0.
#1585000
0#
0A
0B
00
#1590000
1#
1A
1B
10
1T
1U
0Q
1:
1.
#1595000
0#
0A
0B
00
#1600000
1#
1A
1B
10
1V
0T
1Q
1;
0:
1-
0.
#1605000
0#
0A
0B
00
#1610000
1#
1A
1B
10
1T
1m
0j
1_
0W
0U
0Q
1:
1.
1`
#1615000
0#
0A
0B
00
#1620000
1#
1A
1B
10
1a
0X
0V
0T
0m
1Q
1=
0<
0;
0:
1+
0,
0-
0.
#1625000
0#
0A
0B
00
#1630000
1#
1A
1B
10
1T
1U
0Q
1:
1.
#1635000
0#
0A
0B
00
#1640000
1#
1A
1B
10
1V
0T
1Q
1;
0:
1-
0.
#1645000
0#
0A
0B
00
#1650000
1#
1A
1B
10
1T
1m
1j
1W
0U
0Q
1:
1.
#1655000
0#
0A
0B
00
#1660000
1#
1A
1B
10
1X
0V
0T
0m
1Q
1<
0;
0:
1,
0-
0.
#1665000
0#
0A
0B
00
#1670000
1#
1A
1B
10
1T
1U
0Q
1:
1.
#1675000
0#
0A
0B
00
#1680000
1#
1A
1B
10
1V
0T
1Q
1;
0:
1-
0.
#1685000
0#
0A
0B
00
#1690000
1#
1A
1B
10
1T
1m
0j
0_
1Y
0W
0U
0Q
1:
1.
1k
0`
1Z
#1695000
0#
0A
0B
00
#1700000
1#
1A
1B
10
0a
1[
0X
0V
0T
0Y
0k
0i
0\
0Z
0m
1Q
0=
1>
0<
0;
0:
0+
1*
0,
0-
0.
1k
1i
1\
1Z
#1705000
0#
0A
0B
00
#1710000
1#
1A
1B
10
1T
1U
0Q
1:
1.
#1715000
0#
0A
0B
00
#1720000
1#
1A
1B
10
1V
0T
1Q
1;
0:
1-
0.
#1725000
0#
0A
0B
00
#1730000
1#
1A
1B
10
1T
1m
1j
1^
1W
0U
0Q
1:
1.
0k
#1735000
0#
0A
0B
00
#1740000
1#
1A
1B
10
1X
0V
0T
0m
0^
1Q
1<
0;
0:
1,
0-
0.
#1745000
0#
0A
0B
00
#1750000
1#
1A
1B
10
1T
1U
0Q
1:
1.
#1755000
0#
0A
0B
00
#1760000
1#
1A
1B
10
1V
0T
1Q
1;
0:
1-
0.
#1765000
0#
0A
0B
00
#1770000
1#
1A
1B
10
1T
1m
0j
1_
1^
0W
0U
0Q
1:
1.
1k
1`
#1775000
0#
0A
0B
00
#1780000
1#
1A
1B
10
1a
0X
0V
0T
1b
0`
0m
0^
1Q
1=
0<
0;
0:
1+
0,
0-
0.
1w
1e
0\
0Z
0b
1`
0w
0e
1\
1Z
#1785000
0#
0A
0B
00
#1790000
1#
1A
1B
10
1T
1U
0Q
1:
1.
#1795000
0#
0A
0B
00
#1800000
1#
1A
1B
10
1V
0T
1Q
1;
0:
1-
0.
#1805000
0#
0A
0B
00
#1810000
1#
1A
1B
10
1T
1m
1j
1^
1W
0U
0Q
1:
1.
0k
1b
0`
1w
1e
0\
0Z
0W
#1815000
0#
0A
0B
00
#1820000
1#
1A
1B
10
1x
0a
0]
0[
0V
0T
0w
1l
1f
0c
0b
1`
0_
0i
0^
0m
0j
1Q
17
0=
0?
0>
0;
0:
1(
0+
0)
0*
0-
0.
1w
0e
1c
0`
0f
#1825000
0#
0A
0B
00
#1830000
1#
1A
1B
10
1T
1U
0Q
1:
1.
#1835000
0#
0A
0B
00
#1840000
1#
1A
1B
10
1V
0T
1Q
1;
0:
1-
0.
#1845000
0#
0A
0B
00
#1850000
1#
1A
1B
10
1T
1m
1j
1W
0U
0Q
1:
1.
1n
#1855000
0#
0A
0B
00
#1860000
1#
1A
1B
10
1X
0V
0T
0m
1Q
1<
0;
0:
1,
0-
0.
0n
#1865000
0#
0A
0B
00
#1870000
1#
1A
1B
10
1T
1U
0Q
1:
1.
#1875000
0#
0A
0B
00
#1880000
1#
1A
1B
10
1V
0T
1Q
1;
0:
1-
0.
#1885000
0#
0A
0B
00
#1890000
1#
1A
1B
10
1T
1m
0j
1_
0W
0U
0Q
1:
1.
1`
#1895000
0#
0A
0B
00
#1900000
1#
1A
1B
10
1a
0X
0V
0T
0m
1Q
1=
0<
0;
0:
1+
0,
0-
0.
#1905000
0#
0A
0B
00
#1910000
1#
1A
1B
10
1T
1U
0Q
1:
1.
#1915000
0#
0A
0B
00
#1920000
1#
1A
1B
10
1V
0T
1Q
1;
0:
1-
0.
#1925000
0#
0A
0B
00
#1930000
1#
1A
1B
10
1T
1m
1j
1W
0U
0Q
1:
1.
#1935000
0#
0A
0B
00
#1940000
1#
1A
1B
10
1X
0V
0T
0m
1Q
1<
0;
0:
1,
0-
0.
#1945000
0#
0A
0B
00
#1950000
1#
1A
1B
10
1T
1U
0Q
1:
1.
#1955000
0#
0A
0B
00
#1960000
1#
1A
1B
10
1V
0T
1Q
1;
0:
1-
0.
#1965000
0#
0A
0B
00
#1970000
1#
1A
1B
10
1T
1m
0j
0_
1Y
0W
0U
0Q
1:
1.
1n
1k
0`
1Z
#1975000
0#
0A
0B
00
#1980000
1#
1A
1B
10
0a
1[
0X
0V
0T
0Y
0k
1i
1\
0Z
0m
1Q
0=
1>
0<
0;
0:
0+
1*
0,
0-
0.
1k
0i
0\
1Z
0n
#1985000
0#
0A
0B
00
#1990000
1#
1A
1B
10
1T
1U
0Q
1:
1.
#1995000
0#
0A
0B
00
#2000000
1#
1A
1B
10
1V
0T
1Q
1;
0:
1-
0.
#2005000
0#
0A
0B
00
#2010000
1#
1A
1B
10
1T
1m
1j
1W
0U
0Q
1:
1.
1n
0k
#2015000
0#
0A
0B
00
#2020000
1#
1A
1B
10
1X
0V
0T
0m
1Q
1<
0;
0:
1,
0-
0.
0n
#2025000
0#
0A
0B
00
#2030000
1#
1A
1B
10
1T
1U
0Q
1:
1.
#2035000
0#
0A
0B
00
#2040000
1#
1A
1B
10
1V
0T
1Q
1;
0:
1-
0.
#2045000
0#
0A
0B
00
