Sequence_Detector/quartus ii/Sequence_Detecor/simulation/qsim/Sequence_Detector.msim.vcd
$comment
	File created using the following command:
		vcd file Sequence_Detector.msim.vcd -direction
$end
$date
	Wed Jun 17 22:25:01 2020
$end
$version
	ModelSim Version 10.1d
$end
$timescale
	1ps
$end
$scope module Sequence_Detector_vlg_vec_tst $end
$var reg 4 ! DATA_IN [3:0] $end
$var reg 1 " IN_VALID $end
$var reg 2 # MODE [1:0] $end
$var reg 1 $ RST_B $end
$var reg 1 % SYSCLK $end
$var wire 1 & DATA_OUT [3] $end
$var wire 1 ' DATA_OUT [2] $end
$var wire 1 ( DATA_OUT [1] $end
$var wire 1 ) DATA_OUT [0] $end
$var wire 1 * OUT_VALID $end
$var wire 1 + counter [2] $end
$var wire 1 , counter [1] $end
$var wire 1 - counter [0] $end
$var wire 1 . counter_ns [2] $end
$var wire 1 / counter_ns [1] $end
$var wire 1 0 counter_ns [0] $end
$var wire 1 1 data_cs [3] $end
$var wire 1 2 data_cs [2] $end
$var wire 1 3 data_cs [1] $end
$var wire 1 4 data_cs [0] $end
$var wire 1 5 data_pre [3] $end
$var wire 1 6 data_pre [2] $end
$var wire 1 7 data_pre [1] $end
$var wire 1 8 data_pre [0] $end
$var wire 1 9 fsm_cs [2] $end
$var wire 1 : fsm_cs [1] $end
$var wire 1 ; fsm_cs [0] $end
$var wire 1 < fsm_ns [2] $end
$var wire 1 = fsm_ns [1] $end
$var wire 1 > fsm_ns [0] $end
$var wire 1 ? mode_cs [1] $end
$var wire 1 @ mode_cs [0] $end
$var wire 1 A mode_pre [1] $end
$var wire 1 B mode_pre [0] $end
$var wire 1 C sampler $end
$scope module i1 $end
$var wire 1 D gnd $end
$var wire 1 E vcc $end
$var wire 1 F unknown $end
$var tri1 1 G devclrn $end
$var tri1 1 H devpor $end
$var tri1 1 I devoe $end
$var wire 1 J OUT_VALID~output_o $end
$var wire 1 K DATA_OUT[0]~output_o $end
$var wire 1 L DATA_OUT[1]~output_o $end
$var wire 1 M DATA_OUT[2]~output_o $end
$var wire 1 N DATA_OUT[3]~output_o $end
$var wire 1 O counter[0]~output_o $end
$var wire 1 P counter[1]~output_o $end
$var wire 1 Q counter[2]~output_o $end
$var wire 1 R counter_ns[0]~output_o $end
$var wire 1 S counter_ns[1]~output_o $end
$var wire 1 T counter_ns[2]~output_o $end
$var wire 1 U fsm_cs[0]~output_o $end
$var wire 1 V fsm_cs[1]~output_o $end
$var wire 1 W fsm_cs[2]~output_o $end
$var wire 1 X fsm_ns[0]~output_o $end
$var wire 1 Y fsm_ns[1]~output_o $end
$var wire 1 Z fsm_ns[2]~output_o $end
$var wire 1 [ data_cs[0]~output_o $end
$var wire 1 \ data_cs[1]~output_o $end
$var wire 1 ] data_cs[2]~output_o $end
$var wire 1 ^ data_cs[3]~output_o $end
$var wire 1 _ data_pre[0]~output_o $end
$var wire 1 ` data_pre[1]~output_o $end
$var wire 1 a data_pre[2]~output_o $end
$var wire 1 b data_pre[3]~output_o $end
$var wire 1 c mode_cs[0]~output_o $end
$var wire 1 d mode_cs[1]~output_o $end
$var wire 1 e mode_pre[0]~output_o $end
$var wire 1 f mode_pre[1]~output_o $end
$var wire 1 g SYSCLK~input_o $end
$var wire 1 h SYSCLK~inputclkctrl_outclk $end
$var wire 1 i RST_B~input_o $end
$var wire 1 j RST_B~inputclkctrl_outclk $end
$var wire 1 k fsm_cs[0]~reg0_q $end
$var wire 1 l IN_VALID~input_o $end
$var wire 1 m MODE[1]~input_o $end
$var wire 1 n MODE[0]~input_o $end
$var wire 1 o Add3~0_combout $end
$var wire 1 p always4~0_combout $end
$var wire 1 q always6~2_combout $end
$var wire 1 r mode_cs[1]~reg0_q $end
$var wire 1 s mode_cs[0]~reg0_q $end
$var wire 1 t Equal5~0_combout $end
$var wire 1 u Mux4~2_combout $end
$var wire 1 v DATA_IN[2]~input_o $end
$var wire 1 w data_cs[2]~reg0_q $end
$var wire 1 x DATA_IN[3]~input_o $end
$var wire 1 y DATA_IN[1]~input_o $end
$var wire 1 z data_cs[3]~reg0_q $end
$var wire 1 { data_cs[1]~reg0_q $end
$var wire 1 | Equal4~0_combout $end
$var wire 1 } DATA_IN[0]~input_o $end
$var wire 1 ~ data_cs[0]~reg0_q $end
$var wire 1 !! Equal4~1_combout $end
$var wire 1 "! Equal4~2_combout $end
$var wire 1 #! Equal0~1_combout $end
$var wire 1 $! Add0~0_combout $end
$var wire 1 %! Equal0~2_combout $end
$var wire 1 &! Equal0~0_combout $end
$var wire 1 '! Equal0~3_combout $end
$var wire 1 (! Equal3~2_combout $end
$var wire 1 )! Add1~0_combout $end
$var wire 1 *! Equal3~3_combout $end
$var wire 1 +! Equal3~4_combout $end
$var wire 1 ,! Equal3~5_combout $end
$var wire 1 -! fsm_ns~2_combout $end
$var wire 1 .! Mux4~3_combout $end
$var wire 1 /! Mux2~6_combout $end
$var wire 1 0! Mux2~7_combout $end
$var wire 1 1! Mux2~4_combout $end
$var wire 1 2! Mux2~5_combout $end
$var wire 1 3! Mux2~8_combout $end
$var wire 1 4! Mux1~5_combout $end
$var wire 1 5! Mux1~2_combout $end
$var wire 1 6! Mux2~11_combout $end
$var wire 1 7! Mux2~9_combout $end
$var wire 1 8! Mux2~10_combout $end
$var wire 1 9! Mux1~3_combout $end
$var wire 1 :! Mux2~12_combout $end
$var wire 1 ;! Mux2~13_combout $end
$var wire 1 <! counter[0]~reg0_q $end
$var wire 1 =! Mux1~4_combout $end
$var wire 1 >! counter[1]~reg0_q $end
$var wire 1 ?! Add2~0_combout $end
$var wire 1 @! Mux0~0_combout $end
$var wire 1 A! counter[2]~reg0_q $end
$var wire 1 B! fsm_ns~4_combout $end
$var wire 1 C! fsm_ns~3_combout $end
$var wire 1 D! Mux4~4_combout $end
$var wire 1 E! Mux4~5_combout $end
$var wire 1 F! fsm_cs[1]~reg0_q $end
$var wire 1 G! Mux4~6_combout $end
$var wire 1 H! Mux3~0_combout $end
$var wire 1 I! Mux3~1_combout $end
$var wire 1 J! Mux3~2_combout $end
$var wire 1 K! fsm_cs[2]~reg0_q $end
$var wire 1 L! Mux6~3_combout $end
$var wire 1 M! Mux6~1_combout $end
$var wire 1 N! Mux6~0_combout $end
$var wire 1 O! Mux6~2_combout $end
$var wire 1 P! Mux6~4_combout $end
$var wire 1 Q! always6~4_combout $end
$var wire 1 R! always6~3_combout $end
$var wire 1 S! DATA_OUT~0_combout $end
$var wire 1 T! DATA_OUT~1_combout $end
$var wire 1 U! DATA_OUT~2_combout $end
$var wire 1 V! DATA_OUT~3_combout $end
$upscope $end
$upscope $end
$enddefinitions $end
#0
$dumpvars
b0 !
0"
b0 #
1$
1%
0)
0(
0'
0&
0*
0-
0,
0+
00
0/
0.
04
03
02
01
08
07
06
05
0;
0:
09
0>
0=
0<
0@
0?
0B
0A
xC
0D
1E
xF
1G
1H
1I
0J
0K
0L
0M
0N
0O
0P
0Q
0R
0S
0T
0U
0V
0W
0X
0Y
0Z
0[
0\
0]
0^
0_
0`
0a
0b
0c
0d
0e
0f
1g
1h
1i
1j
0k
0l
0m
0n
0o
0p
1q
0r
0s
0t
1u
0v
0w
0x
0y
0z
0{
1|
0}
0~
0!!
1"!
0#!
0$!
1%!
0&!
0'!
0(!
0)!
0*!
0+!
0,!
1-!
0.!
0/!
00!
01!
02!
03!
04!
05!
06!
07!
18!
09!
0:!
0;!
0<!
0=!
0>!
0?!
0@!
0A!
0B!
1C!
0D!
0E!
0F!
0G!
0H!
0I!
0J!
0K!
0L!
0M!
0N!
0O!
0P!
0Q!
0R!
0S!
0T!
0U!
0V!
$end
#5000
0%
0g
0h
0C
#10000
1%
1g
1h
1C
#15000
0%
0g
0h
0C
#20000
1%
1g
1h
1C
#25000
0%
0g
0h
0C
#30000
1%
1g
1h
1C
#35000
0%
0g
0h
0C
#40000
1%
1g
1h
1C
#45000
0%
0g
0h
0C
#50000
1%
1g
1h
1C
#55000
0%
0g
0h
0C
#60000
1%
1g
1h
1C
#65000
0%
0g
0h
0C
#70000
1%
1g
1h
1C
#75000
0%
0g
0h
0C
#80000
1%
1g
1h
1C
#85000
0%
0g
0h
0C
#90000
0$
b10 !
1%
0i
1g
0j
1h
1C
1y
1(!
0|
1`
17
0"!
0-!
1G!
#95000
0%
0g
0h
0C
#100000
b11 !
1$
1%
1i
1g
1j
1h
1C
1}
1!!
1_
18
#105000
0%
0g
0h
0C
#110000
b111 !
b101 !
b100 !
1%
1g
1h
1C
0}
0y
1v
0!!
0(!
1|
1*!
1#!
0_
0`
1a
08
07
16
0%!
#115000
0%
0g
0h
0C
#120000
b101 !
1%
1g
1h
1C
1}
1&!
1!!
1_
18
#125000
0%
0g
0h
0C
#130000
b1 !
b0 !
1%
1g
1h
1C
0}
0v
0&!
0!!
0*!
0#!
0_
0a
08
06
1"!
1%!
1-!
0G!
#135000
0%
0g
0h
0C
#140000
1"
b10 !
b110 !
1%
1l
1g
1h
1C
1y
1v
1N!
10!
1.!
1p
1(!
0|
1*!
1#!
0"!
1`
1a
17
16
1O!
0%!
0-!
1G!
1P!
1X
1>
#145000
0%
0g
0h
0C
#150000
b111 !
1%
1g
1h
1C
1}
1!!
1_
18
1{
1w
1k
1)!
0(!
1&!
0#!
1|
1H!
0G!
17!
15!
11!
00!
0u
0q
1\
1]
1U
13
12
1;
1+!
1%!
08!
16!
0N!
0.!
12!
1'!
0O!
13!
1-!
1:!
14!
1;!
1R
10
#155000
0%
0g
0h
0C
#160000
b1111 !
b1101 !
b1001 !
b1000 !
1%
1g
1h
1C
0}
0y
0v
1x
0&!
0!!
1(!
0|
0*!
1#!
0+!
0%!
0_
0`
0a
1b
08
07
06
15
02!
0'!
03!
0-!
0:!
04!
0;!
0R
00
1<!
1~
0(!
1&!
1$!
0#!
1!!
1O
1[
1-
14
1%!
12!
1'!
13!
1-!
14!
1B!
1=!
0C!
1I!
1S
1/
0P!
1J!
0X
1Z
0>
1<
#165000
0%
0g
0h
0C
#170000
b1001 !
1%
1g
1h
1C
1}
0&!
0!!
1_
18
02!
0'!
03!
0-!
04!
0B!
0=!
1C!
0I!
0S
0/
1P!
0J!
1X
0Z
1>
0<
1K!
1>!
0<!
0~
0{
1z
0w
0k
1Q!
1M!
05!
0)!
1&!
0$!
1!!
1|
0%!
0H!
1G!
07!
01!
10!
1q
1W
1P
0O
0[
0\
1^
0]
0U
19
1,
0-
04
03
11
02
0;
1J!
0P!
1O!
1%!
18!
06!
1.!
1Z
0X
1<
0>
1R!
0J!
1'!
1J
0Z
1*
0<
1P!
1V!
1S!
0R!
1-!
1X
1N
1K
0J
1>
1&
1)
0*
0V!
0S!
0O!
0G!
0.!
0N
0K
0&
0)
0P!
1J!
0X
1Z
0>
1<
1R!
1J
1*
1V!
1S!
1N
1K
1&
1)
#175000
0%
0g
0h
0C
#180000
b1 !
b0 !
1%
1g
1h
1C
0}
0x
0&!
0!!
0%!
0|
0_
0b
08
05
0S!
0V!
0'!
0K
0N
0)
0&
0-!
1O!
1G!
1.!
1P!
0J!
1X
0Z
1>
0<
0R!
0J
0*
0>!
1~
1*!
1)!
1(!
1!!
0P
1[
0,
14
#185000
0%
0g
0h
0C
#190000
0"
1%
0l
1g
1h
1C
00!
0.!
0p
0Q!
0M!
1J!
0O!
1Z
1<
0P!
0X
0>
0K!
0~
0z
1k
1L!
15!
0*!
0)!
0(!
0!!
1+!
1%!
1|
0G!
17!
11!
0q
0W
0[
0^
1U
09
04
01
1;
0J!
1P!
0+!
1"!
08!
16!
0Z
1X
0<
1>
1-!
#195000
0%
0g
0h
0C
#200000
b1 #
b10 !
b110 !
1"
1%
1l
1g
1h
1C
1y
1v
1n
0L!
1p
1(!
0|
1*!
1#!
0"!
1t
1`
1a
1e
17
16
1B
0%!
0-!
1N!
0C!
1u
1.!
0P!
0X
0>
1E!
1Y
1=
#205000
0%
0g
0h
0C
#210000
b111 !
b101 !
1%
1g
1h
1C
1}
0y
1&!
1!!
0(!
1|
1_
0`
18
07
1F!
1{
1w
1s
0k
07!
01!
1)!
1(!
0&!
0#!
0|
0t
10!
1V
1\
1]
1c
0U
1:
13
12
1@
0;
18!
06!
1+!
1%!
1H!
1C!
0u
1,!
1D!
0N!
0.!
17!
13!
1-!
08!
1:!
14!
1;!
1R
10
#215000
0%
0g
0h
0C
#220000
b100 !
1%
1g
1h
1C
0}
0,!
0!!
0_
08
07!
03!
0-!
18!
0:!
19!
04!
09!
0;!
0R
00
1<!
1~
0{
1,!
1!!
1|
1O
1[
0\
1-
14
03
17!
13!
1-!
08!
14!
1B!
1=!
0C!
1I!
1S
1/
0D!
1J!
1Z
1<
0E!
0Y
0=
#225000
0%
0g
0h
0C
#230000
b0 !
b10 !
b11 !
1%
1g
1h
1C
1}
1y
0v
0,!
0!!
0(!
0|
0*!
1#!
1_
1`
0a
18
17
06
07!
03!
0-!
0+!
0%!
18!
1:!
19!
04!
0:!
09!
0B!
1;!
0=!
1C!
0I!
1R
0S
10
0/
0;!
1D!
0R
00
0J!
0Z
0<
1E!
1Y
1=
1K!
0F!
1>!
0<!
0~
1Q!
1M!
0D!
05!
0H!
1G!
1q
1*!
1(!
1!!
1W
0V
1P
0O
0[
19
0:
1,
0-
04
1J!
1.!
1+!
1Z
1<
0E!
0J!
1,!
0Y
0Z
0=
0<
1E!
17!
13!
1-!
1Y
1=
08!
1:!
0G!
0.!
1J!
0E!
1Z
0Y
1<
0=
1R!
1J
1*
1T!
1S!
1L
1K
1(
1)
#235000
0%
0g
0h
0C
#240000
b1 !
b0 !
1%
1g
1h
1C
0}
0y
0,!
0!!
0(!
1|
0_
0`
08
07
0S!
0T!
07!
03!
0-!
0K
0L
0)
0(
18!
0:!
1G!
1.!
0J!
1E!
0Z
1Y
0<
1=
0R!
0J
0*
0>!
1~
1{
0w
1&!
1!!
0|
1"!
0P
1[
1\
0]
0,
14
13
02
0"!
1-!
0-!
0G!
0.!
1G!
1.!
1J!
0E!
1Z
0Y
1<
0=
0J!
1E!
1R!
0Z
1Y
1J
0<
1=
1*
0R!
0J
0*
#245000
0%
0g
0h
0C
#250000
0"
1%
0l
1g
1h
1C
00!
0.!
0p
0Q!
0M!
0E!
1J!
0Y
1Z
0=
1<
0K!
1F!
0~
0{
1D!
15!
0G!
0q
0*!
0)!
0&!
0#!
0!!
1|
0W
1V
0[
0\
09
1:
04
03
0J!
0+!
1%!
1"!
0Z
0<
1E!
1-!
1Y
1=
#255000
0%
0g
0h
0C
#260000
b11 #
b1000 !
b10 #
b1010 !
b1011 !
1"
1%
1l
1g
1h
1C
1}
1y
1x
0n
1m
10!
1p
1!!
1(!
0|
0%!
1t
1_
1`
1b
0e
1f
18
17
15
0B
1A
0"!
0C!
0-!
1u
0D!
1.!
1N!
1O!
1P!
1X
1>
#265000
0%
0g
0h
0C
#270000
1%
1g
1h
1C
1~
1{
1z
0s
1r
1k
1*!
1)!
1#!
0!!
1|
1%!
0t
00!
1[
1\
1^
0c
1d
1U
14
13
11
0@
1?
1;
1+!
0%!
1"!
1H!
1C!
0u
17!
1/!
1-!
1D!
0N!
0.!
08!
13!
0O!
1:!
14!
1;!
1R
10
#275000
0%
0g
0h
0C
#280000
1%
1g
1h
1C
1<!
1B!
0:!
1O
1-
1=!
0C!
1I!
1S
1/
0;!
0D!
0R
00
0P!
1J!
0X
1Z
0>
1<
0E!
0Y
0=
#285000
0%
0g
0h
0C
#290000
1%
1g
1h
1C
1K!
0F!
1>!
0<!
0k
1Q!
1M!
05!
04!
0H!
07!
0/!
1q
0I!
0B!
1:!
10!
1W
0V
1P
0O
0U
19
0:
1,
0-
0;
18!
03!
1C!
1R!
0=!
0:!
1J
0S
1*
0/
1V!
1T!
1S!
1N
1L
1K
1&
1(
1)
#295000
0%
0g
0h
0C
#300000
b11 !
b1 !
b0 !
1%
1g
1h
1C
0}
0y
0x
1,!
1&!
1!!
0(!
0|
0+!
0_
0`
0b
08
07
05
0S!
0T!
0V!
17!
13!
0"!
0,!
0K
0L
0N
0)
0(
0&
08!
1:!
07!
0-!
03!
0:!
18!
1O!
1G!
1.!
1P!
0J!
1E!
1X
0Z
1Y
1>
0<
1=
0R!
0J
0*
0>!
0P
0,
#305000
0%
0g
0h
0C
#310000
0"
1%
0l
1g
1h
1C
00!
0.!
0p
0Q!
0M!
0E!
1J!
0O!
0Y
1Z
0=
1<
0P!
0X
0>
0K!
1F!
0~
0{
0z
1k
1L!
1D!
15!
0G!
0q
0*!
0)!
0&!
0#!
0!!
1|
1+!
0W
1V
0[
0\
0^
1U
09
1:
04
03
01
1;
0J!
1P!
0+!
1%!
1"!
0Z
1X
0<
1>
1E!
17!
1-!
1Y
1=
08!
19!
#315000
0%
0g
0h
0C
#320000
b100 !
b0 #
1"
1%
1l
1g
1h
1C
0m
1v
0L!
1p
1t
1*!
1#!
0"!
0f
1a
0A
16
1N!
0C!
18!
0-!
1u
0%!
07!
1O!
0D!
09!
1.!
0P!
0X
0>
1P!
0E!
1X
0Y
1>
0=
#325000
0%
0g
0h
0C
#330000
b101 !
1%
1g
1h
1C
1}
1&!
1!!
1_
18
0F!
1w
0r
17!
11!
0*!
1)!
0#!
0t
0V
1]
0d
0:
12
0?
08!
16!
1%!
1H!
1C!
0u
12!
1'!
0N!
0.!
13!
1-!
0O!
1:!
14!
1;!
1R
10
#335000
0%
0g
0h
0C
#340000
b111 !
b110 !
1%
1g
1h
1C
0}
1y
0&!
0!!
1(!
0|
0_
1`
08
17
02!
0'!
03!
0-!
0:!
04!
0;!
0R
00
1<!
1~
1*!
0(!
1&!
1!!
1O
1[
1-
14
1+!
12!
1'!
13!
1-!
14!
1B!
1=!
0C!
1I!
1S
1/
0P!
1J!
0X
1Z
0>
1<
#345000
0%
0g
0h
0C
#350000
b1 #
b111 !
1%
1g
1h
1C
1}
1n
0&!
0!!
06!
1t
1_
1e
18
1B
02!
0'!
1N!
0H!
0-!
1u
03!
16!
0I!
1.!
04!
0J!
1E!
0B!
0Z
1Y
0<
1=
0=!
0S
0/
1K!
1>!
0<!
0~
1{
0k
1Q!
1M!
05!
0u
1&!
1!!
1|
1G!
07!
01!
10!
1q
1W
1P
0O
0[
1\
0U
19
1,
0-
04
13
0;
1J!
0N!
1'!
18!
06!
1Z
1<
0J!
0Z
0<
#355000
0%
0g
0h
0C
#360000
b110 !
1%
1g
1h
1C
0}
0&!
0!!
0_
08
0'!
1"!
0K!
1F!
0>!
1~
1s
0Q!
0M!
15!
1u
0G!
0q
1(!
1$!
1#!
1!!
0t
0W
1V
0P
1[
1c
09
1:
0,
14
1@
1N!
1,!
0%!
0"!
1H!
1C!
1-!
0u
17!
13!
1D!
0.!
0N!
08!
1:!
14!
1;!
1R
10
#365000
0%
0g
0h
0C
#370000
b100 !
b101 !
1%
1g
1h
1C
1}
0y
0,!
0!!
0(!
0|
1_
0`
18
07
07!
03!
0-!
18!
0:!
19!
04!
09!
0;!
0R
00
1<!
0~
1(!
0$!
0#!
1!!
1O
0[
1-
04
1,!
1%!
17!
13!
1-!
08!
14!
1B!
1=!
0C!
1I!
1S
1/
0D!
1J!
1Z
1<
0E!
0Y
0=
#375000
0%
0g
0h
0C
#380000
b100 !
1%
1g
1h
1C
0}
0,!
0!!
0_
08
07!
03!
0-!
18!
1:!
19!
04!
0:!
09!
0B!
1;!
0=!
1C!
0I!
1R
0S
10
0/
0;!
1D!
0R
00
0J!
0Z
0<
1E!
1Y
1=
1K!
0F!
1>!
0<!
1~
0{
1Q!
1M!
0D!
05!
0H!
1G!
1q
1,!
1!!
1|
1W
0V
1P
0O
1[
0\
19
0:
1,
0-
14
03
1J!
1.!
17!
13!
1-!
1Z
1<
0E!
0J!
08!
1:!
0G!
0.!
0Y
0Z
0=
0<
1E!
1Y
1=
1J!
0E!
1Z
0Y
1<
0=
1R!
1J
1*
1U!
1M
1'
#385000
0%
0g
0h
0C
#390000
b0 #
b101 !
1%
1g
1h
1C
1}
0n
0,!
0!!
1t
1_
0e
18
0B
1S!
07!
03!
0-!
1"!
0C!
18!
1K
1)
0:!
1O!
1G!
1.!
1P!
0J!
1X
0Z
1>
0<
0R!
0J
0*
0U!
0S!
0M
0K
0'
0)
0>!
0~
1,!
0*!
0(!
1&!
1!!
0P
0[
0,
04
17!
13!
0+!
0,!
1'!
0"!
1:!
07!
03!
0:!
#395000
0%
0g
0h
0C
#400000
b111 !
b110 !
1%
1g
1h
1C
0}
1y
0&!
0!!
1(!
0|
0_
1`
08
17
0'!
0K!
1~
0s
1k
0Q!
0M!
15!
1u
1*!
0(!
1&!
1!!
0t
1N!
0G!
17!
11!
00!
0q
0W
1[
0c
1U
09
14
0@
1;
1+!
12!
1'!
1H!
1C!
08!
0u
16!
13!
1-!
0N!
0.!
1:!
14!
0O!
1;!
1R
10
#405000
0%
0g
0h
0C
#410000
b111 !
1%
1g
1h
1C
1}
0&!
0!!
1_
18
02!
0'!
03!
0-!
0:!
04!
0;!
0R
00
1<!
0~
1{
1&!
1!!
1|
1O
0[
1\
1-
04
13
12!
1'!
13!
1-!
14!
1B!
1=!
0C!
1I!
1S
1/
0P!
1J!
0X
1Z
0>
1<
#415000
0%
0g
0h
0C
#420000
b1111 !
b1011 !
b1001 !
b1000 !
1%
1g
1h
1C
0}
0y
0v
1x
0&!
0!!
1(!
0|
0*!
1#!
0+!
0%!
0_
0`
0a
1b
08
07
06
15
02!
0'!
03!
0-!
04!
0B!
0=!
1C!
0I!
0S
0/
1P!
0J!
1X
0Z
1>
0<
1K!
1>!
0<!
1~
0k
1Q!
1M!
05!
0(!
1&!
1$!
0#!
1!!
0H!
1G!
07!
01!
10!
1q
1W
1P
0O
1[
0U
19
1,
0-
14
0;
1J!
0P!
1O!
1%!
18!
06!
1.!
1Z
0X
1<
0>
1R!
0J!
1'!
1J
0Z
1*
0<
1P!
1V!
0R!
1-!
1X
1N
0J
1>
1&
0*
0V!
0O!
0G!
0.!
0N
0&
0P!
1J!
0X
1Z
0>
1<
1R!
1J
1*
1V!
1N
1&
#425000
0%
0g
0h
0C
#430000
b10 #
1%
1g
1h
1C
1m
1t
1f
1A
0C!
0-!
1O!
1G!
1.!
1P!
0J!
1E!
1X
0Z
1Y
1>
0<
1=
0R!
0J
0*
0V!
0N
0&
0>!
0~
0{
1z
0w
0)!
0&!
0$!
0!!
1|
0%!
0P
0[
0\
1^
0]
0,
04
03
11
02
0'!
1%!
1"!
#435000
0%
0g
0h
0C
#440000
1%
1g
1h
1C
0K!
1F!
1r
1k
0Q!
0M!
15!
1u
0G!
17!
1/!
0q
0t
1N!
00!
0W
1V
1d
1U
09
1:
1?
1;
08!
13!
1H!
1C!
1-!
0u
1:!
14!
1D!
0.!
0N!
0O!
1;!
1R
10
#445000
0%
0g
0h
0C
#450000
1%
1g
1h
1C
1<!
1B!
0:!
1O
1-
1=!
0C!
1I!
1S
1/
0;!
0D!
0R
00
0P!
1J!
0X
1Z
0>
1<
0E!
0Y
0=
#455000
0%
0g
0h
0C
#460000
1%
1g
1h
1C
1K!
0F!
1>!
0<!
0k
1Q!
1M!
05!
04!
0H!
07!
0/!
1q
0I!
0B!
1:!
10!
1W
0V
1P
0O
0U
19
0:
1,
0-
0;
18!
03!
1C!
1R!
0=!
0:!
1J
0S
1*
0/
1V!
1N
1&
#465000
0%
0g
0h
0C
#470000
0"
b0 !
b0 #
1%
0l
1g
1h
1C
0m
0x
00!
0p
1t
0%!
0|
0f
0b
0A
05
0V!
0Q!
0M!
0C!
0-!
0"!
0N
0&
1G!
0R!
0J
0*
0>!
0P
0,
#475000
0%
0g
0h
0C
#480000
1"
1%
1l
1g
1h
1C
10!
1.!
1p
1Q!
1M!
0J!
1O!
0Z
0<
1P!
1X
1>
#485000
0%
0g
0h
0C
#490000
b1 !
0"
1%
0l
1g
1h
1C
1}
00!
0.!
0p
1&!
1!!
1_
18
0Q!
0M!
1J!
0O!
1Z
1<
0P!
0X
0>
0K!
0z
0r
1k
1L!
15!
1u
1%!
1|
0t
1N!
0G!
17!
11!
0q
0W
0^
0d
1U
09
01
0?
1;
0J!
0N!
1'!
1C!
08!
0u
1O!
16!
0Z
0<
1P!
0O!
1-!
1X
1>
#495000
0%
0g
0h
0C
#500000
1"
1%
1l
1g
1h
1C
0L!
1p
1H!
12!
13!
1:!
14!
1;!
1R
10
#505000
0%
0g
0h
0C
#510000
b11 !
b10 !
0"
1%
0l
1g
1h
1C
0}
1y
1L!
0p
0&!
0!!
1(!
0|
0_
1`
08
17
0H!
02!
0'!
03!
0-!
0:!
04!
0;!
0R
00
1<!
1~
1*!
1)!
0(!
1&!
1!!
1O
1[
1-
14
1+!
1'!
1-!
#515000
0%
0g
0h
0C
#520000
b11 !
1%
1g
1h
1C
1}
0&!
0!!
1_
18
0'!
0-!
#525000
0%
0g
0h
0C
#530000
1"
b10 !
1%
1l
1g
1h
1C
0}
0L!
1p
1&!
1!!
0_
08
1H!
12!
1'!
13!
1-!
14!
1B!
1=!
0C!
1I!
1S
1/
0P!
1J!
0X
1Z
0>
1<
#535000
0%
0g
0h
0C
#540000
b10 #
0"
1%
0l
1g
1h
1C
1m
1L!
0p
1t
1f
1A
0H!
02!
1N!
0-!
1u
1P!
0I!
03!
1O!
1X
1>
04!
0J!
0B!
0Z
0<
0=!
0S
0/
1K!
1>!
0<!
0~
1{
0k
0L!
05!
0u
0&!
0!!
1|
0N!
1G!
07!
01!
1q
1W
1P
0O
0[
1\
0U
19
1,
0-
04
13
0;
1J!
0'!
1"!
0O!
18!
06!
1Z
1<
0P!
0X
0>
#545000
0%
0g
0h
0C
#550000
b11 #
b11 !
b1 #
1%
1g
1h
1C
1}
1n
0m
1&!
1!!
1_
1e
0f
18
1B
0A
1'!
0"!
#555000
0%
0g
0h
0C
#560000
1"
b0 #
1%
1l
1g
1h
1C
0n
10!
1.!
1p
0t
0e
0B
1Q!
1M!
1C!
1-!
0J!
0G!
0.!
0Z
0<
1J!
1Z
1<
1R!
1J
1*
1T!
1S!
1L
1K
1(
1)
#565000
0%
0g
0h
0C
#570000
b1 !
0"
b1 #
1%
0l
1g
1h
1C
1n
0y
00!
0p
1t
1(!
0&!
0|
1e
0`
1B
07
0T!
0Q!
0M!
0C!
0-!
1,!
0'!
0L
0(
1G!
17!
0R!
0J
0*
0S!
0K
0)
0>!
1~
0,!
0(!
1#!
0!!
0P
1[
0,
14
07!
0%!
#575000
0%
0g
0h
0C
#580000
b0 !
b11 #
b10 !
b10 #
1%
1g
1h
1C
0n
1m
0}
1y
1!!
1(!
1|
0e
1f
0_
1`
0B
1A
08
17
1,!
17!
#585000
0%
0g
0h
0C
#590000
b110 !
1"
b0 #
b100 !
1%
1l
1g
1h
1C
0m
0y
1v
10!
1.!
1p
0t
0(!
1&!
0|
0*!
0#!
0f
0`
1a
0A
07
16
13!
1Q!
1M!
1C!
08!
1-!
0,!
0+!
1%!
0J!
1:!
0G!
0.!
07!
03!
0-!
1'!
0Z
0<
18!
0:!
1O!
1G!
1.!
1-!
1J!
0O!
0G!
0.!
1Z
1<
1P!
0J!
1R!
1X
0Z
1J
1>
0<
1*
0P!
1J!
0R!
1U!
0X
1Z
0J
1M
0>
1<
0*
1'
1R!
0U!
1J
0M
1*
0'
1U!
1M
1'
#595000
0%
0g
0h
0C
#600000
b1 #
b0 !
b11 #
1%
1g
1h
1C
0v
1n
1m
1*!
1#!
00!
1t
0p
1o
0a
1e
1f
06
1B
1A
0U!
1+!
0%!
0C!
08!
0-!
0Q!
0M!
0M
0'
0'!
1G!
1.!
0R!
0J
0*
0~
0{
1w
0&!
0!!
1|
0[
0\
1]
04
03
12
#605000
0%
0g
0h
0C
#610000
b10 #
b0 #
1%
1g
1h
1C
0n
0m
10!
0t
1p
0o
0e
0f
0B
0A
1C!
18!
1Q!
1M!
0J!
1O!
0Z
0<
1P!
1X
1>
#615000
0%
0g
0h
0C
#620000
b1 !
b1 #
b11 #
1%
1g
1h
1C
1n
1m
1}
0O!
00!
1t
0p
1o
1&!
1!!
1e
1f
1_
1B
1A
18
0C!
08!
0Q!
0M!
0P!
1J!
0X
1Z
0>
1<
0K!
0w
1k
1L!
15!
1u
0*!
0)!
0#!
1N!
0G!
17!
11!
0q
0W
0]
1U
09
02
1;
0J!
19!
0+!
1%!
0Z
0<
1P!
1'!
1X
1>
#625000
0%
0g
0h
0C
#630000
b10 #
b0 #
1%
1g
1h
1C
0n
0m
1O!
16!
0t
1p
0o
0e
0f
0B
0A
09!
1H!
1C!
1-!
0u
12!
0L!
0.!
0N!
13!
0O!
1:!
14!
1;!
1R
10
#635000
0%
0g
0h
0C
#640000
b11 !
b10 !
b1 #
b11 #
1%
1g
1h
1C
1n
1m
0}
1y
06!
1t
0p
1o
0&!
0!!
1(!
0|
1e
1f
0_
1`
1B
1A
08
17
1N!
0H!
0C!
0-!
1u
02!
1L!
0'!
1.!
03!
0:!
19!
04!
0;!
0R
00
1<!
1~
1:!
1*!
1)!
0(!
1&!
1!!
1O
1[
1-
14
1+!
1'!
1;!
1R
10
#645000
0%
0g
0h
0C
#650000
b11 !
1%
1g
1h
1C
1}
0&!
0!!
1_
18
0'!
#655000
0%
0g
0h
0C
#660000
b10 #
b0 #
b10 !
1%
1g
1h
1C
0}
0n
0m
1&!
1!!
1O!
16!
0t
1p
0o
0_
0e
0f
08
0B
0A
12!
1'!
0:!
09!
1H!
1C!
0u
0L!
13!
1-!
0N!
0.!
0;!
14!
0O!
0R
00
1B!
1=!
0C!
1I!
1S
1/
0P!
1J!
0X
1Z
0>
1<
#665000
0%
0g
0h
0C
